<?xml version="1.0" encoding="UTF-8"?>
<testsuite xmlns:xsi="http://www.w3.org/2001/XMLSchema-instance" xsi:noNamespaceSchemaLocation="https://maven.apache.org/surefire/maven-surefire-plugin/xsd/surefire-test-report.xsd" name="cs425.mp1.GrepTest" time="1.931" tests="10" errors="10" skipped="0" failures="0">
  <properties>
    <property name="sun.desktop" value="gnome"/>
    <property name="awt.toolkit" value="sun.awt.X11.XToolkit"/>
    <property name="file.encoding.pkg" value="sun.io"/>
    <property name="java.specification.version" value="1.8"/>
    <property name="sun.cpu.isalist" value=""/>
    <property name="sun.jnu.encoding" value="UTF-8"/>
    <property name="java.class.path" value="/home/maipham/uiuc/cs425/mp1/grep/target/test-classes:/home/maipham/uiuc/cs425/mp1/grep/target/classes:/home/maipham/.m2/repository/net/sourceforge/argparse4j/argparse4j/0.2.0/argparse4j-0.2.0.jar:/home/maipham/.m2/repository/org/junit/jupiter/junit-jupiter-engine/5.2.0/junit-jupiter-engine-5.2.0.jar:/home/maipham/.m2/repository/org/apiguardian/apiguardian-api/1.0.0/apiguardian-api-1.0.0.jar:/home/maipham/.m2/repository/org/junit/platform/junit-platform-engine/1.2.0/junit-platform-engine-1.2.0.jar:/home/maipham/.m2/repository/org/junit/platform/junit-platform-commons/1.2.0/junit-platform-commons-1.2.0.jar:/home/maipham/.m2/repository/org/opentest4j/opentest4j/1.1.0/opentest4j-1.1.0.jar:/home/maipham/.m2/repository/org/junit/jupiter/junit-jupiter-api/5.2.0/junit-jupiter-api-5.2.0.jar:/home/maipham/.m2/repository/org/junit/platform/junit-platform-runner/1.2.0/junit-platform-runner-1.2.0.jar:/home/maipham/.m2/repository/org/junit/platform/junit-platform-launcher/1.2.0/junit-platform-launcher-1.2.0.jar:/home/maipham/.m2/repository/org/junit/platform/junit-platform-suite-api/1.2.0/junit-platform-suite-api-1.2.0.jar:/home/maipham/.m2/repository/junit/junit/4.12/junit-4.12.jar:/home/maipham/.m2/repository/org/hamcrest/hamcrest-core/1.3/hamcrest-core-1.3.jar:/home/maipham/.m2/repository/org/slf4j/slf4j-api/2.0.0/slf4j-api-2.0.0.jar:"/>
    <property name="java.vm.vendor" value="Private Build"/>
    <property name="sun.arch.data.model" value="64"/>
    <property name="java.vendor.url" value="http://java.oracle.com/"/>
    <property name="user.timezone" value=""/>
    <property name="java.vm.specification.version" value="1.8"/>
    <property name="os.name" value="Linux"/>
    <property name="user.country" value="US"/>
    <property name="sun.java.launcher" value="SUN_STANDARD"/>
    <property name="sun.boot.library.path" value="/usr/lib/jvm/java-8-openjdk-amd64/jre/lib/amd64"/>
    <property name="sun.java.command" value="/home/maipham/uiuc/cs425/mp1/grep/target/surefire/surefirebooter2001818853048898706.jar /home/maipham/uiuc/cs425/mp1/grep/target/surefire 2022-09-09T22-58-27_058-jvmRun1 surefire9193241640070089654tmp surefire_01484995695826136901tmp"/>
    <property name="surefire.test.class.path" value="/home/maipham/uiuc/cs425/mp1/grep/target/test-classes:/home/maipham/uiuc/cs425/mp1/grep/target/classes:/home/maipham/.m2/repository/net/sourceforge/argparse4j/argparse4j/0.2.0/argparse4j-0.2.0.jar:/home/maipham/.m2/repository/org/junit/jupiter/junit-jupiter-engine/5.2.0/junit-jupiter-engine-5.2.0.jar:/home/maipham/.m2/repository/org/apiguardian/apiguardian-api/1.0.0/apiguardian-api-1.0.0.jar:/home/maipham/.m2/repository/org/junit/platform/junit-platform-engine/1.2.0/junit-platform-engine-1.2.0.jar:/home/maipham/.m2/repository/org/junit/platform/junit-platform-commons/1.2.0/junit-platform-commons-1.2.0.jar:/home/maipham/.m2/repository/org/opentest4j/opentest4j/1.1.0/opentest4j-1.1.0.jar:/home/maipham/.m2/repository/org/junit/jupiter/junit-jupiter-api/5.2.0/junit-jupiter-api-5.2.0.jar:/home/maipham/.m2/repository/org/junit/platform/junit-platform-runner/1.2.0/junit-platform-runner-1.2.0.jar:/home/maipham/.m2/repository/org/junit/platform/junit-platform-launcher/1.2.0/junit-platform-launcher-1.2.0.jar:/home/maipham/.m2/repository/org/junit/platform/junit-platform-suite-api/1.2.0/junit-platform-suite-api-1.2.0.jar:/home/maipham/.m2/repository/junit/junit/4.12/junit-4.12.jar:/home/maipham/.m2/repository/org/hamcrest/hamcrest-core/1.3/hamcrest-core-1.3.jar:/home/maipham/.m2/repository/org/slf4j/slf4j-api/2.0.0/slf4j-api-2.0.0.jar:"/>
    <property name="sun.cpu.endian" value="little"/>
    <property name="user.home" value="/home/maipham"/>
    <property name="user.language" value="en"/>
    <property name="java.specification.vendor" value="Oracle Corporation"/>
    <property name="java.home" value="/usr/lib/jvm/java-8-openjdk-amd64/jre"/>
    <property name="basedir" value="/home/maipham/uiuc/cs425/mp1/grep"/>
    <property name="file.separator" value="/"/>
    <property name="line.separator" value="&#10;"/>
    <property name="java.vm.specification.vendor" value="Oracle Corporation"/>
    <property name="java.specification.name" value="Java Platform API Specification"/>
    <property name="java.awt.graphicsenv" value="sun.awt.X11GraphicsEnvironment"/>
    <property name="surefire.real.class.path" value="/home/maipham/uiuc/cs425/mp1/grep/target/surefire/surefirebooter2001818853048898706.jar"/>
    <property name="sun.boot.class.path" value="/usr/lib/jvm/java-8-openjdk-amd64/jre/lib/resources.jar:/usr/lib/jvm/java-8-openjdk-amd64/jre/lib/rt.jar:/usr/lib/jvm/java-8-openjdk-amd64/jre/lib/sunrsasign.jar:/usr/lib/jvm/java-8-openjdk-amd64/jre/lib/jsse.jar:/usr/lib/jvm/java-8-openjdk-amd64/jre/lib/jce.jar:/usr/lib/jvm/java-8-openjdk-amd64/jre/lib/charsets.jar:/usr/lib/jvm/java-8-openjdk-amd64/jre/lib/jfr.jar:/usr/lib/jvm/java-8-openjdk-amd64/jre/classes"/>
    <property name="sun.management.compiler" value="HotSpot 64-Bit Tiered Compilers"/>
    <property name="java.runtime.version" value="1.8.0_342-8u342-b07-0ubuntu1~20.04-b07"/>
    <property name="user.name" value="maipham"/>
    <property name="path.separator" value=":"/>
    <property name="os.version" value="5.15.0-46-generic"/>
    <property name="java.endorsed.dirs" value="/usr/lib/jvm/java-8-openjdk-amd64/jre/lib/endorsed"/>
    <property name="java.runtime.name" value="OpenJDK Runtime Environment"/>
    <property name="file.encoding" value="UTF-8"/>
    <property name="java.vm.name" value="OpenJDK 64-Bit Server VM"/>
    <property name="localRepository" value="/home/maipham/.m2/repository"/>
    <property name="java.vendor.url.bug" value="http://bugreport.sun.com/bugreport/"/>
    <property name="java.io.tmpdir" value="/tmp"/>
    <property name="java.version" value="1.8.0_342"/>
    <property name="user.dir" value="/home/maipham/uiuc/cs425/mp1/grep"/>
    <property name="os.arch" value="amd64"/>
    <property name="java.vm.specification.name" value="Java Virtual Machine Specification"/>
    <property name="java.awt.printerjob" value="sun.print.PSPrinterJob"/>
    <property name="sun.os.patch.level" value="unknown"/>
    <property name="java.library.path" value="/usr/java/packages/lib/amd64:/usr/lib/x86_64-linux-gnu/jni:/lib/x86_64-linux-gnu:/usr/lib/x86_64-linux-gnu:/usr/lib/jni:/lib:/usr/lib"/>
    <property name="java.vm.info" value="mixed mode"/>
    <property name="java.vendor" value="Private Build"/>
    <property name="java.vm.version" value="25.342-b07"/>
    <property name="java.ext.dirs" value="/usr/lib/jvm/java-8-openjdk-amd64/jre/lib/ext:/usr/java/packages/lib/ext"/>
    <property name="sun.io.unicode.encoding" value="UnicodeLittle"/>
    <property name="java.class.version" value="52.0"/>
  </properties>
  <testcase name="test_none_occured_pattern_case" classname="cs425.mp1.GrepTest" time="0.118">
    <error message="For input string: &quot;2.log&quot;" type="java.lang.NumberFormatException">java.lang.NumberFormatException: For input string: "2.log"
	at cs425.mp1.GrepTest.getObserved(GrepTest.java:56)
	at cs425.mp1.GrepTest.test_none_occured_pattern_case(GrepTest.java:157)
</error>
    <system-out><![CDATA[fa22-cs425-5210.cs.illinois.edu:vm10.log --- 0 matches
fa22-cs425-5202.cs.illinois.edu:vm2.log --- 0 matches
fa22-cs425-5203.cs.illinois.edu:vm3.log --- 0 matches
fa22-cs425-5205.cs.illinois.edu:vm5.log --- 0 matches
fa22-cs425-5208.cs.illinois.edu:vm8.log --- 0 matches
fa22-cs425-5204.cs.illinois.edu:vm4.log --- 0 matches
fa22-cs425-5207.cs.illinois.edu:vm7.log --- 0 matches
fa22-cs425-5209.cs.illinois.edu:vm9.log --- 0 matches
fa22-cs425-5206.cs.illinois.edu:vm6.log --- 0 matches
fa22-cs425-5201.cs.illinois.edu:vm1.log --- 0 matches
Total lines: 0
]]></system-out>
    <system-err><![CDATA[SLF4J: No SLF4J providers were found.
SLF4J: Defaulting to no-operation (NOP) logger implementation
SLF4J: See http://www.slf4j.org/codes.html#noProviders for further details.
]]></system-err>
  </testcase>
  <testcase name="test_rare_case[1]" classname="cs425.mp1.GrepTest" time="0.135">
    <error message="For input string: &quot;2.log&quot;" type="java.lang.NumberFormatException">java.lang.NumberFormatException: For input string: "2.log"
	at cs425.mp1.GrepTest.getObserved(GrepTest.java:56)
	at cs425.mp1.GrepTest.test_rare_case(GrepTest.java:93)
</error>
    <system-out><![CDATA[fa22-cs425-5202.cs.illinois.edu:vm2.log --- 1 matches
fa22-cs425-5207.cs.illinois.edu:vm7.log --- 1 matches
fa22-cs425-5206.cs.illinois.edu:vm6.log --- 0 matches
fa22-cs425-5210.cs.illinois.edu:vm10.log --- 0 matches
fa22-cs425-5204.cs.illinois.edu:vm4.log --- 2 matches
fa22-cs425-5203.cs.illinois.edu:vm3.log --- 1 matches
fa22-cs425-5208.cs.illinois.edu:vm8.log --- 1 matches
fa22-cs425-5209.cs.illinois.edu:vm9.log --- 0 matches
fa22-cs425-5205.cs.illinois.edu:vm5.log --- 0 matches
fa22-cs425-5201.cs.illinois.edu:vm1.log --- 2 matches
Total lines: 8
]]></system-out>
  </testcase>
  <testcase name="test_rare_case[2]" classname="cs425.mp1.GrepTest" time="0.161">
    <error message="For input string: &quot;2.log&quot;" type="java.lang.NumberFormatException">java.lang.NumberFormatException: For input string: "2.log"
	at cs425.mp1.GrepTest.getObserved(GrepTest.java:56)
	at cs425.mp1.GrepTest.test_rare_case(GrepTest.java:93)
</error>
    <system-out><![CDATA[fa22-cs425-5202.cs.illinois.edu:vm2.log --- 1 matches
fa22-cs425-5203.cs.illinois.edu:vm3.log --- 1 matches
fa22-cs425-5205.cs.illinois.edu:vm5.log --- 0 matches
fa22-cs425-5210.cs.illinois.edu:vm10.log --- 0 matches
fa22-cs425-5207.cs.illinois.edu:vm7.log --- 1 matches
fa22-cs425-5209.cs.illinois.edu:vm9.log --- 0 matches
fa22-cs425-5206.cs.illinois.edu:vm6.log --- 0 matches
fa22-cs425-5208.cs.illinois.edu:vm8.log --- 1 matches
fa22-cs425-5204.cs.illinois.edu:vm4.log --- 2 matches
fa22-cs425-5201.cs.illinois.edu:vm1.log --- 2 matches
Total lines: 8
]]></system-out>
  </testcase>
  <testcase name="test_rare_case[3]" classname="cs425.mp1.GrepTest" time="0.221">
    <error message="For input string: &quot;2.log&quot;" type="java.lang.NumberFormatException">java.lang.NumberFormatException: For input string: "2.log"
	at cs425.mp1.GrepTest.getObserved(GrepTest.java:56)
	at cs425.mp1.GrepTest.test_rare_case(GrepTest.java:93)
</error>
    <system-out><![CDATA[fa22-cs425-5210.cs.illinois.edu:vm10.log --- 0 matches
fa22-cs425-5206.cs.illinois.edu:vm6.log --- 0 matches
fa22-cs425-5207.cs.illinois.edu:vm7.log --- 1 matches
fa22-cs425-5208.cs.illinois.edu:vm8.log --- 1 matches
fa22-cs425-5203.cs.illinois.edu:vm3.log --- 1 matches
fa22-cs425-5205.cs.illinois.edu:vm5.log --- 0 matches
fa22-cs425-5204.cs.illinois.edu:vm4.log --- 2 matches
fa22-cs425-5202.cs.illinois.edu:vm2.log --- 1 matches
fa22-cs425-5209.cs.illinois.edu:vm9.log --- 0 matches
fa22-cs425-5201.cs.illinois.edu:vm1.log --- 2 matches
Total lines: 8
]]></system-out>
  </testcase>
  <testcase name="test_rare_case[4]" classname="cs425.mp1.GrepTest" time="0.129">
    <error message="For input string: &quot;2.log&quot;" type="java.lang.NumberFormatException">java.lang.NumberFormatException: For input string: "2.log"
	at cs425.mp1.GrepTest.getObserved(GrepTest.java:56)
	at cs425.mp1.GrepTest.test_rare_case(GrepTest.java:93)
</error>
    <system-out><![CDATA[fa22-cs425-5207.cs.illinois.edu:vm7.log --- 1 matches
fa22-cs425-5204.cs.illinois.edu:vm4.log --- 2 matches
fa22-cs425-5210.cs.illinois.edu:vm10.log --- 0 matches
fa22-cs425-5205.cs.illinois.edu:vm5.log --- 0 matches
fa22-cs425-5203.cs.illinois.edu:vm3.log --- 1 matches
fa22-cs425-5206.cs.illinois.edu:vm6.log --- 0 matches
fa22-cs425-5209.cs.illinois.edu:vm9.log --- 0 matches
fa22-cs425-5202.cs.illinois.edu:vm2.log --- 1 matches
fa22-cs425-5208.cs.illinois.edu:vm8.log --- 1 matches
fa22-cs425-5201.cs.illinois.edu:vm1.log --- 2 matches
Total lines: 8
]]></system-out>
  </testcase>
  <testcase name="test_rare_case[5]" classname="cs425.mp1.GrepTest" time="0.265">
    <error message="For input string: &quot;2.log&quot;" type="java.lang.NumberFormatException">java.lang.NumberFormatException: For input string: "2.log"
	at cs425.mp1.GrepTest.getObserved(GrepTest.java:56)
	at cs425.mp1.GrepTest.test_rare_case(GrepTest.java:93)
</error>
    <system-out><![CDATA[fa22-cs425-5202.cs.illinois.edu:vm2.log --- 1 matches
fa22-cs425-5204.cs.illinois.edu:vm4.log --- 2 matches
fa22-cs425-5206.cs.illinois.edu:vm6.log --- 0 matches
fa22-cs425-5203.cs.illinois.edu:vm3.log --- 1 matches
fa22-cs425-5205.cs.illinois.edu:vm5.log --- 0 matches
fa22-cs425-5210.cs.illinois.edu:vm10.log --- 0 matches
fa22-cs425-5207.cs.illinois.edu:vm7.log --- 1 matches
fa22-cs425-5209.cs.illinois.edu:vm9.log --- 0 matches
fa22-cs425-5208.cs.illinois.edu:vm8.log --- 1 matches
fa22-cs425-5201.cs.illinois.edu:vm1.log --- 2 matches
Total lines: 8
]]></system-out>
  </testcase>
  <testcase name="test_pattern_occured_once" classname="cs425.mp1.GrepTest" time="0.193">
    <error message="For input string: &quot;2.log&quot;" type="java.lang.NumberFormatException">java.lang.NumberFormatException: For input string: "2.log"
	at cs425.mp1.GrepTest.getObserved(GrepTest.java:56)
	at cs425.mp1.GrepTest.test_pattern_occured_once(GrepTest.java:109)
</error>
    <system-out><![CDATA[fa22-cs425-5202.cs.illinois.edu:vm2.log --- 0 matches
fa22-cs425-5204.cs.illinois.edu:vm4.log --- 0 matches
fa22-cs425-5210.cs.illinois.edu:vm10.log --- 0 matches
fa22-cs425-5203.cs.illinois.edu:vm3.log --- 0 matches
fa22-cs425-5206.cs.illinois.edu:vm6.log --- 0 matches
fa22-cs425-5208.cs.illinois.edu:vm8.log --- 0 matches
fa22-cs425-5205.cs.illinois.edu:vm5.log --- 0 matches
fa22-cs425-5207.cs.illinois.edu:vm7.log --- 0 matches
fa22-cs425-5209.cs.illinois.edu:vm9.log --- 0 matches
fa22-cs425-5201.cs.illinois.edu:vm1.log --- 1 matches
Total lines: 1
]]></system-out>
  </testcase>
  <testcase name="test_pattern_occured_all_case" classname="cs425.mp1.GrepTest" time="0.206">
    <error message="For input string: &quot;2.log&quot;" type="java.lang.NumberFormatException">java.lang.NumberFormatException: For input string: "2.log"
	at cs425.mp1.GrepTest.getObserved(GrepTest.java:56)
	at cs425.mp1.GrepTest.test_pattern_occured_all_case(GrepTest.java:141)
</error>
    <system-out><![CDATA[fa22-cs425-5206.cs.illinois.edu:vm6.log --- 268894 matches
fa22-cs425-5202.cs.illinois.edu:vm2.log --- 267938 matches
fa22-cs425-5201.cs.illinois.edu:vm1.log --- 283553 matches
fa22-cs425-5203.cs.illinois.edu:vm3.log --- 268804 matches
fa22-cs425-5207.cs.illinois.edu:vm7.log --- 268084 matches
fa22-cs425-5205.cs.illinois.edu:vm5.log --- 271205 matches
fa22-cs425-5210.cs.illinois.edu:vm10.log --- 265524 matches
fa22-cs425-5209.cs.illinois.edu:vm9.log --- 269822 matches
fa22-cs425-5204.cs.illinois.edu:vm4.log --- 270917 matches
fa22-cs425-5208.cs.illinois.edu:vm8.log --- 274522 matches
Total lines: 2709263
]]></system-out>
  </testcase>
  <testcase name="test_normal_case" classname="cs425.mp1.GrepTest" time="0.28">
    <error message="For input string: &quot;2.log&quot;" type="java.lang.NumberFormatException">java.lang.NumberFormatException: For input string: "2.log"
	at cs425.mp1.GrepTest.getObserved(GrepTest.java:56)
	at cs425.mp1.GrepTest.test_normal_case(GrepTest.java:75)
</error>
    <system-out><![CDATA[fa22-cs425-5204.cs.illinois.edu:vm4.log --- 0 matches
fa22-cs425-5210.cs.illinois.edu:vm10.log --- 0 matches
fa22-cs425-5202.cs.illinois.edu:vm2.log --- 0 matches
fa22-cs425-5207.cs.illinois.edu:vm7.log --- 0 matches
fa22-cs425-5208.cs.illinois.edu:vm8.log --- 0 matches
fa22-cs425-5201.cs.illinois.edu:vm1.log --- 0 matches
fa22-cs425-5206.cs.illinois.edu:vm6.log --- 0 matches
fa22-cs425-5205.cs.illinois.edu:vm5.log --- 0 matches
fa22-cs425-5203.cs.illinois.edu:vm3.log --- 0 matches
fa22-cs425-5209.cs.illinois.edu:vm9.log --- 0 matches
Total lines: 0
]]></system-out>
  </testcase>
  <testcase name="test_pattern_occured_several_case" classname="cs425.mp1.GrepTest" time="0.171">
    <error message="For input string: &quot;2.log&quot;" type="java.lang.NumberFormatException">java.lang.NumberFormatException: For input string: "2.log"
	at cs425.mp1.GrepTest.getObserved(GrepTest.java:56)
	at cs425.mp1.GrepTest.test_pattern_occured_several_case(GrepTest.java:125)
</error>
    <system-out><![CDATA[fa22-cs425-5204.cs.illinois.edu:vm4.log --- 0 matches
fa22-cs425-5207.cs.illinois.edu:vm7.log --- 0 matches
fa22-cs425-5201.cs.illinois.edu:vm1.log --- 0 matches
fa22-cs425-5210.cs.illinois.edu:vm10.log --- 0 matches
fa22-cs425-5209.cs.illinois.edu:vm9.log --- 0 matches
fa22-cs425-5203.cs.illinois.edu:vm3.log --- 0 matches
fa22-cs425-5202.cs.illinois.edu:vm2.log --- 0 matches
fa22-cs425-5205.cs.illinois.edu:vm5.log --- 0 matches
fa22-cs425-5208.cs.illinois.edu:vm8.log --- 0 matches
fa22-cs425-5206.cs.illinois.edu:vm6.log --- 0 matches
Total lines: 0
]]></system-out>
  </testcase>
</testsuite>